Single-cell RNA-seq Workshop: Class 8: V(D)J
…
Take a look at the meta.data to see the V(D)J data added to the object.

vdj_cols <- c(
  "chains", "cdr3",   "cdr3_nt",
  "v_gene", "j_gene", "c_gene",
  "reads",  "umis"
)

so_tcr@meta.data %>%
  as_tibble() %>%
  filter(!is.na(clonotype_id), n_chains > 1) %>%
  select(all_of(vdj_cols))

#> # A tibble: 799 x 8
#>    chains  cdr3     cdr3_nt        v_gene    j_gene c_gene reads umis 
#>    <chr>   <chr>    <chr>          <chr>     <chr>  <chr>  <chr> <chr>
#>  1 TRB;TRB CASRTGG TGTGCCAGCAGGA TRBV13-1 TRBJ2 None; 4166 7;171
#>  2 TRB;TRB CASRLTG TGTGCCAGCAGAC TRBV15;T TRBJ1 TRBC1 2886 48;22
#>  3 TRB;TRB CASSDEG TGTGCCAGCAGTG TRBV13-3 TRBJ2 None; 1672 30;40
#>  4 TRB;TRB CASSLAG TGTGCAAGCAGCT TRBV16;T TRBJ1 TRBC1 8140 25;24
#>  5 TRB;TRB CASGPDW TGTGCCAGCGGGC TRBV12-2 TRBJ2 None; 2146 7;54 
#>  6 TRB;TRB CASSDQG TGTGCCAGCAGTG TRBV13-1 TRBJ2 None; 2952 65;89
#>  7 TRB;TRB CASSLPG TGTGCCAGCTCCC TRBV12-2 TRBJ1 TRBC1 1816 36;39
#>  8 TRB;TRB CTCSAPD TGCACCTGCAGTG TRBV1;TR TRBJ2 None; 1292 24;13
#>  9 TRB;TRB CASSLGP TGTGCCAGCTCTC TRBV12-1 TRBJ2 None; 1743 30;32
#> 10 TRB;TRB CASSFDI TGTGCCAGCAGCT TRBV3;TR TRBJ2 None; 8860 17;28
#> #  with 789 more rows
…
# Example showing how paired chains can be filtered
x <- filter_vdj(
  sobj_in      = so_tcr,                            # Seurat object
  filt         = all(c("TRA", "TRB") %in% chains),  # Condition for filtering
  filter_cells = FALSE                              # Should cells be removed
)

# Take a look at the meta.data
x@meta.data %>%
  as_tibble() %>%
  filter(!is.na(clonotype_id)) %>%
  select(all_of(vdj_cols))

#> # A tibble: 654 x 8
#>    chains  cdr3      cdr3_nt      v_gene    j_gene  c_gene reads umis 
#>    <chr>   <chr>     <chr>        <chr>     <chr>   <chr>  <chr> <chr>
#>  1 TRA;TRB CALSGSNT TGCGCTCTCTC TRAV15-2 TRAJ49 TRAC; 2286 3;26 
#>  2 TRA;TRB CAASASAN TGTGCAGCAAG TRAV14-2 TRAJ47 TRAC; 1913 13;23
#>  3 TRA;TR CATTGFAS TGTGCTACCAC TRAV16D- TRAJ35 TRAC; 904; 2;16
#>  4 TRA;TRB CALGMNYN TGTGCTCTGGG TRAV6N-7 TRAJ23 TRAC; 8336 8;8  
#>  5 TRA;TRB CALISGSF TGTGCTTTGAT TRAV12D- TRAJ4; TRAC; 2190 1;10 
#>  6 TRA;TRB CAMRGGEG TGTGCTATGAG TRAV16N; TRAJ22 TRAC; 1109 8;11 
#>  7 TRA;TRB CAAYNYAQ TGTGCAGCCTA TRAV14N- TRAJ26 TRAC; 1085 7;15 
#>  8 TRA;TR CALVMNYN TGTGCTTTGGT TRAV13-1 TRAJ23 TRAC; 1688 13;2
#>  9 TRA;TRB CAVSNNNN TGCGCAGTCAG TRAV3-3; TRAJ43 TRAC; 1187 8;25 
#> 10 TRA;TRB CAGHYNVL TGTGCAGGACA TRAV7-3; TRAJ21 TRAC; 4144 2;6  
#> #  with 644 more rows
…
